59.608021
59.608021
59.348644
64.007355
63.624123
67.200584
70.777046
73.741707
68.287399
69.499893
73.587898
75.842697
63.529411
84.034683
59.352638
68.043304
70.417290
66.163231
96.316246
63.794392
64.276344
74.098969
61.794998
72.088272
67.324821
70.050034
69.270645
83.912094
61.180607
76.842659
65.628258
89.670601
72.487190
94.130203
70.930733
89.009995
70.795990
85.689301
61.347988
75.369583
76.613487
73.396019
71.130943
61.084564
72.405869
73.328896
73.749931
74.371803
67.702072
64.323219
63.661549
27.312012
64.061592
64.061592
64.061592
64.061592
49.239815
65.672234
72.728271
69.286964
62.830956
76.008270
75.483543
70.456665
69.988892
78.060005
80.966949
78.827423
84.366928
85.283249
61.200447
72.224045
71.984329
96.527069
88.035667
72.151176
62.060230
87.586891
62.483765
76.100090
73.850792
90.762527
62.191509
81.205498
64.522423
81.965179
65.469124
99.864128
69.874298
112.990250
156.106201
64.176567
95.402924
59.711597
136.999069
59.037460
76.835960
73.824005
80.880333
80.880333
59.080963
75.414696
75.414696
75.979881
63.057060
63.839027
68.469398
68.469398
68.468071
68.468071
68.468071
68.468071
65.550217
65.550217
73.227432
73.227432
68.110939
82.289894
63.025509
70.752449
65.456161
72.758270
72.123642
72.123642
72.936768
72.936768
70.854759
68.141434
68.141434
75.990807
69.039291
72.275337
64.445419
67.432915
67.432915
70.333061
66.997520
67.381393
69.474350
69.655411
69.809776
70.839577
70.748665
70.748665
78.665718
61.040878
69.589462
69.589462
72.752266
69.922310
69.922310
70.280754
53.328495
28.797178
36.307999
36.307999
49.505454
62.702908
66.663307
65.219002
62.133095
86.132812
61.593613
68.173035
80.393768
56.260765
72.870483
75.940651
67.304268
68.239845
75.580566
75.580566
74.182060
74.182060
75.164047
71.521248
73.993286
68.666634
71.098450
75.623764
75.623764
73.865219
76.447472
76.447472
78.110703
78.110703
80.535690
62.525108
67.012787
79.065323
63.671585
72.768272
75.198227
77.901428
68.829178
73.061630
51.111668
20.000000
44.681626
69.363251
69.363251
69.363251
34.681626
17.340813
8.670406
4.335203
2.167602
0.000000
