11, 59.830414;
12, 65.965294;
13, 59.091518;
14, 76.058525;
21, 49.700409;
22, 66.858704;
23, 78.460442;
24, 74.541512;
31, 57.235561;
32, 76.891785;
33, 76.800278;
34, 63.352108;
41, 71.570702;
42, 84.612434;
43, 88.545326;
44, 51.267147;
51, 46.62397;
52, 60.386036;
53, 79.97036;
54, 64.647865;
61, 64.917679;
62, 80.628944;
63, 72.226013;
64, 75.62809;
71, 63.081104;
72, 65.279915;
73, 72.93264;
74, 82.786301;
81, 44.985462;
82, 47.868877;
83, 64.568085;
84, 53.255508;
91, 62.874252;
92, 62.030323;
93, 70.10099;
94, 70.09848;
101, 51.168007;
102, 46.177204;
103, 49.653774;
104, 73.412315;
111, 66.457993;
112, 65.843216;
113, 76.951897;
114, 51.871277;
121, 54.863262;
122, 60.805222;
123, 67.188057;
124, 53.040932;
131, 79.497658;
132, 44.923599;
133, 53.871166;
134, 37.907322;
141, 52.678471;
142, 52.678471;
143, 52.678471;
144, 52.678471;
151, 59.427288;
152, 64.417175;
153, 55.41013;
154, 78.846199;
161, 51.319363;
162, 76.746864;
163, 77.398918;
164, 70.263954;
171, 58.511345;
172, 71.868973;
173, 76.90519;
174, 62.662815;
181, 100.27285;
182, 79.725212;
183, 70.65419;
184, 77.896843;
191, 40.971176;
192, 54.370609;
193, 87.772842;
194, 66.415665;
201, 67.985611;
202, 79.098412;
203, 68.961922;
204, 64.420311;
211, 72.45742;
212, 69.701279;
213, 75.606483;
214, 77.244202;
221, 49.885937;
222, 57.232693;
223, 59.060284;
224, 63.508965;
231, 63.211319;
232, 75.328819;
233, 60.636593;
234, 77.320946;
241, 63.049786;
242, 41.736237;
243, 48.518394;
244, 55.78162;
251, 59.837177;
252, 78.897934;
253, 69.203606;
254, 53.228706;
261, 46.455284;
262, 74.889618;
263, 55.538063;
264, 55.094009;
271, 64.705452;
272, 51.900669;
273, 43.776592;
274, 39.545002;
281, 48.562851;
282, 48.562851;
283, 48.562851;
284, 48.562851;
291, 56.123978;
292, 63.56604;
293, 54.932735;
294, 74.332108;
301, 49.221497;
302, 60.656075;
303, 85.780975;
304, 43.736984;
311, 61.754742;
312, 65.035225;
313, 71.792061;
314, 55.019547;
321, 58.073437;
322, 61.632347;
323, 64.53466;
324, 62.828304;
331, 72.682327;
332, 59.315807;
333, 64.793678;
334, 61.656765;
341, 75.078735;
342, 80.101715;
343, 62.214909;
344, 36.971832;
351, 79.752769;
352, 53.050007;
353, 70.144745;
354, 44.378845;
361, 69.631027;
362, 71.622505;
363, 63.121727;
364, 56.924038;
371, 56.259567;
372, 49.334377;
373, 43.692207;
374, 69.654755;
381, 61.475349;
382, 46.867527;
383, 52.666149;
384, 69.230766;
391, 45.336945;
392, 41.640438;
393, 47.072979;
394, 47.072979;
401, 51.943569;
402, 65.362381;
403, 62.569462;
404, 56.632069;
411, 48.359367;
412, 60.847168;
413, 71.632828;
414, 52.433735;
421, 66.153305;
422, 65.7761;
423, 69.133751;
424, 55.7299;
431, 68.252167;
432, 49.227905;
433, 76.478409;
434, 62.814548;
441, 60.77589;
442, 59.074368;
443, 59.074368;
444, 42.837021;
451, 49.481991;
452, 77.732079;
453, 63.036022;
454, 39.263405;
461, 59.807671;
462, 48.564552;
463, 65.866776;
464, 57.598118;
471, 71.18644;
472, 62.741051;
473, 71.238846;
474, 60.777287;
481, 49.634216;
482, 50.730473;
483, 48.092476;
484, 62.302803;
491, 57.759052;
492, 37.50053;
493, 39.503151;
494, 44.165512;
501, 40.040554;
502, 25.171232;
503, 55.567883;
504, 55.567883;
511, 67.510002;
512, 67.510002;
513, 67.510002;
514, 67.510002;
521, 67.510002;
