52.371151
52.749092
52.465649
53.341396
47.791061
56.466068
57.389492
55.971569
51.039696
58.495823
57.205864
57.537998
59.793907
62.121426
58.222946
58.468678
44.653706
53.892216
57.605644
55.756912
54.686371
57.339748
55.589401
50.197300
59.857483
60.260994
48.707752
58.921772
51.281059
44.668030
42.226547
54.019844
56.768932
57.174961
55.713474
54.822334
54.125927
45.428013
41.489613
57.460529
52.805939
53.888924
52.808048
36.584354
36.769917
53.864788
56.897106
53.027115
51.591015
51.458576
42.858532
36.689869
38.422863
38.422863
38.422863
38.422863
50.366421
51.902706
50.418247
49.634216
44.779907
57.600628
59.165512
56.754322
46.255508
58.033951
54.961262
57.316147
59.694084
59.239689
60.475853
49.580273
47.945206
51.771702
58.359066
53.756451
50.321404
56.511894
59.177422
48.587902
58.269104
53.182724
53.285538
62.276409
50.048233
41.035980
42.458279
49.953747
55.407810
54.651356
56.342228
60.631058
55.203205
45.982204
39.993351
57.260334
53.567089
57.313667
50.765511
34.953304
36.173237
56.567471
56.850655
47.555714
49.421917
52.129715
48.669228
28.705019
39.740471
39.740471
39.740471
39.740471
50.142128
56.033203
46.937363
51.384628
43.115528
51.789944
59.017712
50.013229
47.149807
58.428654
61.646709
55.429863
54.957836
58.783020
56.374638
58.305054
53.904293
58.604652
56.202209
52.317307
51.195728
56.611038
61.576412
41.065277
54.858707
55.465885
59.186687
56.560215
60.199299
51.480602
53.431877
49.849285
44.860382
31.895658
38.083450
55.575394
55.944351
53.655075
46.739208
52.515629
48.517521
30.990501
30.523607
30.523607
50.528004
51.230419
51.875233
57.114487
49.953747
49.919819
57.714958
54.112644
51.155148
59.351307
58.455761
55.583565
54.563450
57.266529
57.455540
57.173725
53.421089
67.099457
48.026138
48.670124
53.606373
55.657227
48.251213
36.438751
50.407681
54.474709
58.207577
54.354973
58.849697
49.147442
49.624905
47.408310
40.058743
31.677242
32.451923
55.644348
56.325436
52.998436
39.617897
48.033981
38.179615
20.000000
29.470982
29.470982
67.510002
67.510002
67.510002
33.755001
16.877501
8.438750
4.219375
0.000000
