49.871834
49.871834
61.818096
61.864346
60.845772
56.580116
61.378349
59.577152
69.681091
53.138931
59.616077
61.269855
61.896183
56.503448
60.854168
58.335907
57.781757
49.466267
60.768913
61.111366
57.345963
55.187071
53.028179
64.403069
59.799313
58.664421
60.631058
56.897106
49.714413
52.189350
57.634502
57.863892
60.404064
60.643566
57.731327
60.660248
53.842865
55.295494
57.380783
58.005962
59.634888
55.341755
52.264603
56.828678
56.315845
60.215740
54.138107
52.097897
51.741333
52.485420
46.944027
41.463604
54.049637
54.049637
54.049637
54.049637
55.242390
59.569103
53.268375
61.764706
54.687500
61.721485
61.668259
67.823547
51.902706
61.293507
60.427917
62.181278
55.665417
61.333767
60.661640
63.313553
42.887707
63.156387
59.875092
58.084911
62.473438
61.419186
60.386143
60.752171
61.553493
54.618641
59.169479
57.188553
54.722561
54.778072
60.317314
58.773880
57.659622
59.834473
61.484837
60.084473
52.895668
54.172466
59.063820
57.170021
59.668507
55.522915
55.752747
55.079723
54.299198
60.069469
54.536461
51.724136
51.973049
51.484608
56.745804
36.385639
54.221310
54.221310
54.221310
54.221310
52.766975
63.019505
56.618309
55.835743
70.904121
57.645802
60.667202
64.756126
57.855034
57.613171
63.179008
58.638420
53.877949
62.774311
62.407131
55.346386
53.006931
62.122883
58.293495
55.090569
60.898987
58.207577
49.377647
56.161652
55.663078
61.721485
59.467358
54.444443
53.496693
54.736145
47.971283
53.026051
42.328548
43.255791
45.572762
57.242992
53.096279
54.522976
48.023521
53.316677
40.806885
35.022701
43.727226
43.727226
52.754353
64.204597
55.768661
55.799240
72.212219
58.105320
60.095390
64.307587
57.953873
57.903145
62.258823
59.074368
52.318340
65.012283
61.494839
56.022526
51.609127
62.612400
58.222946
57.023403
61.231575
65.129105
45.453766
56.539669
54.303658
62.585743
58.659218
55.259697
52.946472
55.212421
48.084610
52.652527
42.534721
43.215523
45.561775
57.598118
52.665100
54.801899
48.372059
52.160542
36.011761
20.054113
42.982529
42.982529
42.982529
42.982529
21.491265
10.745632
5.372816
2.686408
1.343204
0.000000
