52.055424
52.055424
52.055424
52.055424
53.611851
53.611851
53.611851
53.611851
54.067841
54.067841
54.067841
54.067841
54.767487
54.767487
54.767487
54.767487
54.910995
54.910995
54.910995
54.910995
56.465260
56.465260
56.465260
56.465260
56.563229
56.563229
56.563229
56.563229
57.054302
57.054302
57.054302
57.054302
58.210808
58.210808
58.210808
58.210808
56.493111
56.493111
56.493111
56.493111
52.469452
52.469452
52.469452
52.469452
56.158871
56.158871
56.158871
56.158871
55.366673
55.366673
55.366673
55.366673
54.602921
54.602921
54.602921
54.602921
57.677742
57.677742
57.677742
57.677742
56.762642
56.762642
56.762642
56.762642
57.439270
57.439270
57.439270
57.439270
54.494682
54.494678
54.494678
54.494678
56.765472
56.765472
56.765472
56.765472
54.786179
54.786179
54.786179
54.786179
56.455803
51.782768
49.056683
47.227478
52.437538
52.437538
52.437538
52.437538
55.528404
55.528404
55.528404
55.528404
55.705811
55.705811
55.705811
55.705811
56.873325
56.873325
56.873325
56.873325
53.744007
53.744007
53.744007
53.744007
54.124241
54.124241
54.124241
54.124241
55.202503
55.202503
55.202503
55.202503
55.980942
51.886269
47.408955
26.958473
85.170830
85.170830
85.170830
85.170830
102.086151
102.086151
102.086151
102.086151
111.767929
111.767929
111.767929
111.767929
122.939903
122.939903
122.939903
122.939903
123.590851
123.590851
123.590851
123.590851
106.259819
106.259819
106.259819
106.259819
100.842445
100.842445
100.842445
100.842445
108.159477
76.744568
68.641380
44.049057
84.070091
84.070091
84.070091
84.070091
97.528877
97.528877
97.528877
97.528877
102.620094
102.620094
102.620094
102.620094
84.610275
84.610275
84.610275
84.610275
67.839569
67.839569
67.839569
67.839569
66.175720
66.175720
66.175720
66.175720
58.616604
58.616604
58.616604
58.616604
43.915211
26.140930
31.419140
31.419140
87.684486
87.684486
87.684486
87.684486
108.150925
108.150925
108.150925
108.150925
108.906982
108.906982
108.906982
108.906982
116.503036
116.503036
116.503036
116.503036
116.641304
116.641304
116.641304
116.641304
109.955475
109.955475
109.955475
109.955475
102.081619
102.081619
102.081619
102.081619
97.680557
72.577454
57.152367
33.827190
81.665649
81.665649
81.665649
81.665649
96.153656
96.153656
96.153656
96.153656
91.261841
91.261841
91.261841
91.261841
70.863968
70.863968
70.863968
70.863968
60.784554
60.784554
60.784554
60.784554
66.868385
66.868385
66.868385
66.868385
55.334049
55.334049
55.334049
55.334049
40.434505
24.886980
35.430119
20.000000
54.014111
54.014111
54.014111
54.014111
47.658176
47.658176
47.658176
47.658176
48.832005
48.832005
48.832005
48.832005
43.595318
43.595318
43.595318
43.595318
45.970093
45.970093
45.970093
45.970093
45.998146
45.998146
45.998146
45.998146
50.077801
50.077801
50.077801
50.077801
54.505081
54.505081
54.505081
54.505081
54.741108
54.741108
54.741108
54.741108
56.016747
56.016747
56.016747
56.016747
55.967834
55.967834
55.967834
55.967834
54.597206
54.597206
54.597206
54.597206
56.417225
56.417225
56.417225
56.417225
56.260307
56.260307
56.260307
56.260307
54.369476
54.369476
54.369476
54.369476
57.597286
57.597286
57.597286
57.597286
51.611919
51.611919
51.611919
51.611919
50.600174
50.600174
50.600174
50.600174
50.582600
50.582600
50.582600
50.582600
50.752121
50.752121
50.752121
50.752121
55.729851
55.729851
55.729851
55.729851
52.469246
52.469246
52.469246
52.469246
55.965740
55.965740
55.965740
55.965740
53.225899
53.225899
53.225899
53.225899
57.529522
57.529522
57.529522
57.529522
57.412136
57.412136
57.412136
57.412136
55.032131
47.235931
56.746250
43.918209
52.565903
52.565903
52.565903
52.565903
54.488533
54.488533
54.488533
54.488533
53.946728
53.946728
53.946728
53.946728
57.727985
57.727985
57.727985
57.727985
57.074959
57.074959
57.074959
57.074959
58.181450
58.181450
58.181450
58.181450
53.446083
53.446083
53.446083
53.446083
69.046394
56.813438
42.797070
26.610369
50.698780
50.698780
50.698780
50.698780
50.571976
50.571976
50.571976
50.571976
50.220928
50.220928
50.220928
50.220928
51.942326
51.942326
51.942326
51.942326
53.133919
53.133919
53.133919
53.133919
47.911221
41.310535
39.280933
20.861197
31.512800
31.512800
31.512800
31.512800
15.756400
7.878200
3.939100
1.969550
0.984775
0.492387
0.246194
0.000000
