38.125702
38.125702
30.906160
36.528797
39.392586
38.939251
42.213074
46.209461
37.071285
45.142799
41.978676
39.844597
36.638050
47.795380
35.939369
43.002014
35.443512
53.621368
56.495003
35.004631
40.569134
39.852398
40.031467
36.850315
41.246433
36.741325
37.962696
47.566830
38.108681
33.973167
43.074818
44.042744
38.990894
38.582676
38.588867
38.904327
33.768089
26.838966
29.011568
43.004112
49.076340
55.360283
49.051777
31.991295
30.708168
64.083313
47.979980
34.367653
33.710442
28.844267
23.779781
25.277035
33.704216
33.704216
33.704216
33.704216
40.915417
46.823570
36.723988
44.828747
35.643864
44.924362
48.961918
41.804249
32.504944
36.714813
52.443810
32.996220
34.133568
50.441315
32.006001
36.933128
33.565048
29.157990
43.534058
25.313791
43.978325
32.041267
41.622753
43.771713
48.258251
34.854313
39.407253
44.636379
30.771019
26.980453
36.486488
33.266281
46.683132
46.360054
38.685341
39.760178
38.241417
32.812500
35.517731
46.089531
44.516975
35.136177
34.665722
29.686642
31.337715
47.167458
47.117901
28.782457
26.145987
27.747482
20.000000
20.000000
39.622940
39.622940
39.622940
39.622940
44.422058
41.143177
38.023445
37.333675
41.665356
33.204498
42.547718
53.625713
36.869312
54.775803
40.520676
41.200508
41.880341
46.019791
38.970795
59.915764
44.730701
44.133835
43.531193
28.668941
31.793713
34.536770
32.327824
33.619209
31.820860
40.963453
50.106045
44.375870
54.148079
43.241653
43.241653
33.524651
30.570158
26.671505
26.393225
26.007980
47.917419
34.992596
33.391804
33.960522
25.200239
22.476110
36.802135
28.032333
36.806744
38.323387
27.022335
36.396481
45.770626
55.767487
55.767487
51.136364
52.046658
50.183971
55.751038
54.168030
54.168030
47.392223
53.466702
53.466702
67.076408
62.689594
62.689594
59.326702
32.528122
74.177902
74.177902
41.420120
33.377483
38.108681
57.544258
46.197361
51.667580
41.886307
41.886307
24.587650
20.000000
20.000000
20.748384
36.093976
51.439568
51.439568
24.133087
20.000000
20.000000
20.000000
20.000000
20.000000
20.000000
20.000000
10.000000
5.000000
2.500000
1.250000
0.625000
0.000000
