63.962894
63.962894
63.962894
60.825161
60.825161
60.825161
63.772421
66.719681
66.719681
57.958511
57.958511
57.958511
63.544872
69.131233
69.131233
69.131233
69.131233
69.131233
69.131233
68.555618
68.555618
68.555618
65.976372
65.976372
65.976372
65.670334
65.670334
66.425163
66.425163
66.425163
66.425163
67.197548
67.197548
44.313538
44.313538
44.313538
57.774178
57.774178
57.774178
59.410904
59.410904
59.410904
60.197849
60.197849
60.197849
63.092743
63.092743
63.092743
67.912682
67.912682
67.912682
61.687485
61.687485
61.687485
62.354527
62.354527
62.354527
64.410172
64.410172
64.410172
63.224022
63.224022
63.224022
60.787445
60.787445
60.787445
63.264576
63.264576
63.264576
43.064514
43.064514
43.064514
50.917896
50.917896
50.917896
59.346146
59.346146
59.346146
62.469627
62.469627
62.469627
57.063602
57.063602
57.063602
65.215546
65.215546
65.215546
59.945602
59.945602
59.945602
61.615891
61.615891
61.615891
68.226151
68.226151
68.226151
55.591675
55.591675
55.591675
60.039009
60.039009
60.039009
58.393593
58.393593
58.393593
49.321091
49.321091
49.321091
46.297459
46.297459
46.297459
63.472584
63.472584
63.472584
60.216175
60.216175
60.216175
54.627666
54.627666
54.627666
60.724888
60.724888
60.724888
57.860504
57.860504
57.860504
57.319752
57.319752
57.319752
56.859013
56.859013
56.859013
59.578495
59.578495
59.578495
60.302608
60.302608
60.302608
60.752686
60.752686
60.752686
59.529137
59.529137
59.529137
53.988926
53.988926
53.988926
63.783550
63.783550
63.783550
57.726566
57.726566
57.726566
57.726566
57.726566
57.726566
55.337139
55.337139
55.337139
52.303257
52.303257
52.303257
56.884113
56.884113
56.884113
50.968166
50.968166
50.968166
60.574539
60.574539
60.574539
54.588348
54.588348
54.588348
54.788265
54.788265
54.788265
55.683914
55.683914
55.683914
53.922440
53.922440
53.922440
40.144352
40.144352
40.144352
54.669319
54.669319
54.669319
64.317467
64.317467
64.317467
57.109474
57.109474
57.109474
57.109470
57.109470
57.109470
64.027298
64.027298
64.027298
65.070732
65.070732
65.070732
65.070732
65.070732
65.070732
56.048542
56.048542
56.048542
64.671394
64.671394
64.671394
60.593021
60.593021
60.593021
55.585331
55.585331
55.585331
52.545509
52.545509
52.545509
56.871483
56.871483
56.871483
58.283211
58.283211
58.283211
67.336914
67.336914
67.336914
59.279503
59.279503
59.279503
61.067966
61.067966
61.067966
62.443920
62.443920
62.443920
63.001453
63.001453
63.001453
62.443916
62.443916
62.443916
66.987305
66.987305
66.987305
54.785469
54.785469
54.785469
66.452744
66.452744
66.452744
56.368900
56.368900
56.368900
59.641178
59.641178
59.641178
61.144737
61.144737
61.144737
60.635197
60.635197
60.635197
60.635197
60.635197
60.635197
61.188766
61.188766
61.188766
60.360928
60.360928
60.360928
64.523750
64.523750
64.523750
59.878040
59.878040
59.878040
63.430126
63.430126
63.430126
60.360928
60.360928
60.360928
62.372955
62.372955
62.372955
53.083366
53.083366
53.083366
59.913414
59.913414
59.913414
55.097961
55.097961
55.097961
61.077583
61.077583
61.077583
57.511009
57.511009
57.511009
57.232506
57.232506
57.232506
54.035236
54.035236
54.035236
60.879704
60.879704
60.879704
59.240662
59.240662
59.240662
56.683514
56.683514
56.683514
55.485973
55.485973
55.485973
58.363026
58.363026
58.363026
55.428455
55.428455
55.428455
59.845596
59.845596
59.845596
59.845596
59.845596
59.845596
54.269920
54.269920
54.269920
52.635284
52.635284
52.635284
57.194748
57.194748
57.194748
58.222469
58.222469
58.222469
63.805447
63.805447
63.805447
63.438725
63.438725
63.438725
60.941738
60.941738
60.941738
64.514679
64.514679
64.514679
62.900658
62.900658
62.900658
61.215645
61.215645
61.215645
61.749348
61.749348
61.749348
60.032078
60.032078
60.032078
59.656113
59.656113
59.656113
49.972412
49.972412
49.972412
50.405273
50.405273
50.405273
54.198109
54.198109
54.198109
58.714615
58.714615
58.714615
56.366032
56.366032
56.366032
58.865688
58.865688
58.865688
58.865685
58.865685
58.865685
58.865685
58.865685
58.865685
63.847599
63.847599
63.847599
62.734409
62.734409
62.734409
56.085602
56.085602
56.085602
63.690430
63.690430
63.690430
63.023994
63.023994
63.023994
60.558125
60.558125
60.558125
59.054207
59.054207
59.054207
55.239887
55.239887
55.239887
51.241848
51.241848
51.241848
47.911140
47.911140
47.911140
32.511658
32.511658
32.511658
34.625275
34.625275
34.625275
25.035742
25.035742
25.035742
25.035742
25.035742
25.035742
21.499840
21.499840
21.499840
47.029514
47.029514
47.029514
23.514757
11.757379
0.000000
