11, 66.297508;
12, 70.297554;
13, 70.297554;
14, 72.826355;
21, 68.389763;
22, 73.538811;
23, 77.350327;
24, 73.826065;
31, 68.88472;
32, 80.381554;
33, 78.994507;
34, 65.955429;
41, 86.481895;
42, 99.001007;
43, 78.836815;
44, 64.115921;
51, 59.498112;
52, 64.47683;
53, 76.141693;
54, 73.239594;
61, 79.342712;
62, 76.42981;
63, 77.178856;
64, 91.958015;
71, 62.807091;
72, 71.351524;
73, 71.081261;
74, 70.2043;
81, 63.569096;
82, 65.388229;
83, 68.333244;
84, 70.475426;
91, 67.541351;
92, 63.719116;
93, 72.934753;
94, 64.789421;
101, 80.986778;
102, 52.706013;
103, 62.137474;
104, 74.088593;
111, 64.505119;
112, 73.164665;
113, 73.01123;
114, 63.97176;
121, 72.49514;
122, 67.518944;
123, 56.911793;
124, 74.747871;
131, 62.735859;
132, 63.031265;
133, 53.446453;
134, 53.446453;
141, 82.796173;
142, 82.796173;
143, 82.796173;
144, 82.796173;
151, 65.204536;
152, 64.5933;
153, 74.629814;
154, 75.621605;
161, 70.051888;
162, 77.823532;
163, 76.465149;
164, 69.743538;
171, 68.090584;
172, 77.659073;
173, 79.020454;
174, 66.169853;
181, 74.420731;
182, 74.304161;
183, 79.975822;
184, 92.481911;
191, 48.465088;
192, 68.757637;
193, 68.725487;
194, 78.775787;
201, 77.12262;
202, 76.18335;
203, 81.420395;
204, 74.059563;
211, 74.059563;
212, 75.170456;
213, 73.489792;
214, 81.043831;
221, 56.700809;
222, 65.482086;
223, 68.250404;
224, 70.546829;
231, 65.581085;
232, 70.977348;
233, 70.977348;
234, 72.437584;
241, 63.79747;
242, 60.032669;
243, 65.08905;
244, 75.247414;
251, 65.351082;
252, 69.769279;
253, 77.92437;
254, 62.550236;
261, 71.39003;
262, 64.811638;
263, 60.590794;
264, 73.430649;
271, 66.720459;
272, 53.365067;
273, 63.301434;
274, 38.178513;
281, 87.573845;
282, 87.573845;
283, 87.573845;
284, 87.573845;
291, 52.458366;
292, 58.411884;
293, 71.773453;
294, 63.977947;
301, 66.695236;
302, 77.777779;
303, 66.723824;
304, 63.29538;
311, 59.488747;
312, 70.103859;
313, 70.129868;
314, 67.973389;
321, 66.057518;
322, 67.522392;
323, 69.499893;
324, 63.283268;
331, 65.56971;
332, 62.239784;
333, 66.310806;
334, 66.211243;
341, 60.308632;
342, 69.966133;
343, 65.957077;
344, 54.932735;
351, 58.873264;
352, 60.171921;
353, 68.2733;
354, 65.863495;
361, 64.965996;
362, 66.390663;
363, 64.114372;
364, 62.112087;
371, 59.751244;
372, 54.145863;
373, 58.962475;
374, 58.962475;
381, 64.354507;
382, 50.860165;
383, 55.520584;
384, 58.224228;
391, 56.369232;
392, 56.369232;
393, 53.588245;
394, 53.588245;
401, 54.720299;
402, 61.566383;
403, 58.124466;
404, 61.646709;
411, 63.246964;
412, 70.716522;
413, 57.650826;
414, 65.56971;
421, 56.783554;
422, 70.396683;
423, 72.848412;
424, 55.499622;
431, 57.287605;
432, 68.222252;
433, 61.780571;
434, 63.855972;
441, 63.381802;
442, 71.868973;
443, 54.622021;
444, 66.814804;
451, 65.999847;
452, 65.11628;
453, 64.964401;
454, 53.984577;
461, 60.160976;
462, 61.603649;
463, 66.284225;
464, 67.31797;
471, 63.648609;
472, 67.790527;
473, 64.384262;
474, 58.853622;
481, 54.153618;
482, 53.207321;
483, 55.035568;
484, 64.503548;
491, 61.79644;
492, 50.696453;
493, 54.497147;
494, 54.651356;
501, 47.247467;
502, 35.963791;
503, 32.637657;
504, 65.275314;
511, 67.510002;
